rca/transcript
# vsim -c Testbench 
# //  QuestaSim-64 6.5f Jun 16 2010 Linux 4.15.0-88-generic
# //
# //  Copyright 1991-2010 Mentor Graphics Corporation
# //              All Rights Reserved.
# //
# //  THIS WORK CONTAINS TRADE SECRET AND 
# //  PROPRIETARY INFORMATION WHICH IS THE PROPERTY
# //  OF MENTOR GRAPHICS CORPORATION OR ITS LICENSORS
# //  AND IS SUBJECT TO LICENSE TERMS.
# //
# Loading work.Testbench
# Loading work.RippleCarryAdder
# Loading work.Slice
#                    0  A=1111 B=0000 Cin=0 Sum=xxxx Cout=x
#                    2  A=1111 B=0000 Cin=0 Sum=xxx1 Cout=x
#                    3  A=1111 B=0000 Cin=0 Sum=xx11 Cout=x
#                    5  A=1111 B=0000 Cin=0 Sum=x111 Cout=x
#                    7  A=1111 B=0000 Cin=0 Sum=1111 Cout=x
#                    8  A=1111 B=0000 Cin=0 Sum=1111 Cout=0
#                   20  A=1111 B=0000 Cin=1 Sum=1111 Cout=0
#                   21  A=1111 B=0000 Cin=1 Sum=1110 Cout=0
#                   23  A=1111 B=0000 Cin=1 Sum=1100 Cout=0
#                   25  A=1111 B=0000 Cin=1 Sum=1000 Cout=0
#                   27  A=1111 B=0000 Cin=1 Sum=0000 Cout=0
#                   28  A=1111 B=0000 Cin=1 Sum=0000 Cout=1
# invalid command name "VSIM"
# invalid command name "VSIM"
