alu/transcript
# vsim -c Testbench 
# //  QuestaSim-64 6.5f Jun 16 2010 Linux 4.15.0-88-generic
# //
# //  Copyright 1991-2010 Mentor Graphics Corporation
# //              All Rights Reserved.
# //
# //  THIS WORK CONTAINS TRADE SECRET AND 
# //  PROPRIETARY INFORMATION WHICH IS THE PROPERTY
# //  OF MENTOR GRAPHICS CORPORATION OR ITS LICENSORS
# //  AND IS SUBJECT TO LICENSE TERMS.
# //
# Loading work.Testbench
# Loading work.Alu
# Loading work.Mux
# Loading work.Carry
# Loading work.CarryLookAhead
#                    0  A=0100 B=0010 s1=0 s0=0 Ain=xxxx Cin=x Sum=xxxx Cout=x
#                    1  A=0100 B=0010 s1=0 s0=0 Ain=xxxx Cin=0 Sum=xxxx Cout=x
#                    3  A=0100 B=0010 s1=0 s0=0 Ain=0x00 Cin=0 Sum=xxxx Cout=x
#                    4  A=0100 B=0010 s1=0 s0=0 Ain=0100 Cin=0 Sum=xxxx Cout=x
#                    5  A=0100 B=0010 s1=0 s0=0 Ain=0100 Cin=0 Sum=xx10 Cout=x
#                    6  A=0100 B=0010 s1=0 s0=0 Ain=0100 Cin=0 Sum=x110 Cout=0
#                    7  A=0100 B=0010 s1=0 s0=0 Ain=0100 Cin=0 Sum=0110 Cout=0
#                   20  A=0100 B=0010 s1=0 s0=1 Ain=0100 Cin=0 Sum=0110 Cout=0
#                   21  A=0100 B=0010 s1=0 s0=1 Ain=0100 Cin=1 Sum=0110 Cout=0
#                   22  A=0100 B=0010 s1=0 s0=1 Ain=0100 Cin=1 Sum=0111 Cout=0
#                   23  A=0100 B=0010 s1=0 s0=1 Ain=1111 Cin=1 Sum=0111 Cout=0
#                   24  A=0100 B=0010 s1=0 s0=1 Ain=1011 Cin=1 Sum=0111 Cout=0
#                   25  A=0100 B=0010 s1=0 s0=1 Ain=1011 Cin=1 Sum=1100 Cout=0
#                   26  A=0100 B=0010 s1=0 s0=1 Ain=1011 Cin=1 Sum=1100 Cout=1
#                   27  A=0100 B=0010 s1=0 s0=1 Ain=1011 Cin=1 Sum=0110 Cout=0
#                   28  A=0100 B=0010 s1=0 s0=1 Ain=1011 Cin=1 Sum=1110 Cout=0
